{
  "_fv": 33,
  "_type": "item",
  "definition": {
    "renderType": 0,
    "texture": "cookie",
    "customModelName": "Normal",
    "name": "milk dipped cookie",
    "rarity": "COMMON",
    "creativeTab": {
      "value": "CUSTOM:Milkynkonx"
    },
    "stackSize": 16,
    "enchantability": 1,
    "useDuration": 32,
    "toolType": 1.0,
    "damageCount": 0,
    "recipeRemainder": {
      "value": ""
    },
    "destroyAnyBlock": false,
    "immuneToFire": false,
    "stayInGridWhenCrafting": false,
    "damageOnCrafting": false,
    "enableMeleeDamage": true,
    "damageVsEntity": 1.0,
    "specialInfo": [],
    "hasGlow": false,
    "guiBoundTo": "<NONE>",
    "inventorySize": 9,
    "inventoryStackSize": 16,
    "isFood": true,
    "nutritionalValue": 8,
    "saturation": 0.7,
    "eatResultItem": {
      "value": ""
    },
    "isMeat": false,
    "isAlwaysEdible": true,
    "animation": "eat"
  }
}