{
  "_fv": 33,
  "_type": "tool",
  "definition": {
    "renderType": 0,
    "texture": "regal_sword",
    "customModelName": "Normal",
    "name": "Regal sword",
    "specialInfo": [],
    "creativeTab": {
      "value": "CUSTOM:Milkynkonx"
    },
    "toolType": "Sword",
    "harvestLevel": 1,
    "efficiency": 4.0,
    "attackSpeed": 1.8,
    "enchantability": 2,
    "damageVsEntity": 9.0,
    "usageCount": 100,
    "blocksAffected": [],
    "hasGlow": false,
    "repairItems": [
      {
        "value": "CUSTOM:Regalgem"
      }
    ],
    "immuneToFire": true,
    "stayInGridWhenCrafting": false,
    "damageOnCrafting": false
  }
}