{
  "_fv": 33,
  "_type": "tool",
  "definition": {
    "renderType": 0,
    "texture": "bettereeg",
    "customModelName": "Normal",
    "name": "Regalpic",
    "specialInfo": [],
    "creativeTab": {
      "value": "CUSTOM:Milkynkonx"
    },
    "toolType": "Pickaxe",
    "harvestLevel": 15,
    "efficiency": 9.0,
    "attackSpeed": 1.0,
    "enchantability": 6,
    "damageVsEntity": 4.0,
    "usageCount": 2500,
    "blocksAffected": [],
    "hasGlow": false,
    "repairItems": [
      {
        "value": "CUSTOM:Regalgem"
      }
    ],
    "immuneToFire": false,
    "stayInGridWhenCrafting": false,
    "damageOnCrafting": false
  }
}