{
  "_fv": 33,
  "_type": "armor",
  "definition": {
    "enableHelmet": true,
    "textureHelmet": "regalhelmet",
    "enableBody": true,
    "textureBody": "regal_chestplate",
    "enableLeggings": true,
    "textureLeggings": "regal_leggings",
    "enableBoots": true,
    "textureBoots": "regal_boots",
    "creativeTab": {
      "value": "CUSTOM:Milkynkonx"
    },
    "armorTextureFile": "regalarmor",
    "helmetName": "Regal Crown",
    "bodyName": "Regal Chest Plate",
    "leggingsName": "Regal Leggings",
    "bootsName": "Regal Boots",
    "helmetSpecialInfo": [],
    "bodySpecialInfo": [],
    "leggingsSpecialInfo": [],
    "bootsSpecialInfo": [],
    "helmetModelName": "Default",
    "helmetModelPart": "Helmet",
    "helmetModelTexture": "From armor",
    "bodyModelName": "Default",
    "bodyModelPart": "Body",
    "armsModelPartL": "Arms L",
    "armsModelPartR": "Arms R",
    "bodyModelTexture": "From armor",
    "leggingsModelName": "Default",
    "leggingsModelPartL": "Leggings L",
    "leggingsModelPartR": "Leggings R",
    "leggingsModelTexture": "From armor",
    "bootsModelName": "Default",
    "bootsModelPartL": "Boots L",
    "bootsModelPartR": "Boots R",
    "bootsModelTexture": "From armor",
    "helmetImmuneToFire": false,
    "bodyImmuneToFire": false,
    "leggingsImmuneToFire": false,
    "bootsImmuneToFire": false,
    "maxDamage": 25,
    "damageValueHelmet": 5,
    "damageValueBody": 10,
    "damageValueLeggings": 8,
    "damageValueBoots": 5,
    "enchantability": 15,
    "toughness": 3.9999999999999996,
    "knockbackResistance": 0.2,
    "equipSound": {
      "value": "item.armor.equip_diamond"
    },
    "repairItems": [
      {
        "value": "CUSTOM:Regalgem"
      }
    ]
  }
}